{
    "data": [
        {
            "name": "TOTAL - Arquivos IN",
            "cmd": "filein",
            "url": "https://dashboard.cip-core.local:8443/render/d-solo/njIiuGRMk/ctc-pcps-health-check?refresh=1m&orgId=1&panelId=37&width=1000&height=500&tz=America%2FSao_Paulo",
            "help": "TOTAL - Arquivos IN"
        },
        {
            "name": "TOTAL - Arquivos DONE",
            "cmd": "filedone",
            "url": "https://dashboard.cip-core.local:8443/render/d-solo/njIiuGRMk/ctc-pcps-health-check?refresh=1m&orgId=1&panelId=38&width=1000&height=500&tz=America%2FSao_Paulo",
            "help": "TOTAL - Arquivos DONE"
        },
        {
            "name": "Acesso BIG IP Conexões",
            "cmd": "conbig",
            "url": "https://dashboard.cip-core.local:8443/render/d-solo/njIiuGRMk/ctc-pcps-health-check?refresh=1m&orgId=1&panelId=52&width=1000&height=500&tz=America%2FSao_Paulo",
            "help": "Acesso BIG IP quantidade de conexões"
        },
        {
            "name": "Latência cheque legal",
            "cmd": "ltcheque",
            "url": "https://dashboard.cip-core.local:8443/render/d-solo/njIiuGRMk/ctc-pcps-health-check?refresh=1m&orgId=1&panelId=44&width=1000&height=500&tz=America%2FSao_Paulo",
            "help": "Latência cheque legal"
        },
        {
            "name": "Latência cheque legal gráficos",
            "cmd": "ltgraph",
            "url": "https://dashboard.cip-core.local:8443/render/d-solo/njIiuGRMk/ctc-pcps-health-check?refresh=1m&orgId=1&panelId=48&width=1000&height=500&tz=America%2FSao_Paulo",
            "help": "Latência cheque legal gráfico"
        },
        {
            "name": "Média de mensagens processadas (Atlante)",
            "cmd": "transarq",
            "url": "https://dashboard.cip-core.local:8443/render/d-solo/njIiuGRMk/ctc-pcps-health-check?refresh=1m&orgId=1&panelId=6&width=1000&height=500&tz=America%2FSao_Paulo",
            "help": "Média de mensagens processadas (Atlante)"
        },
        {
            "name": "Top Arquivos - Em transmissão CIP para o mercado",
            "cmd": "transarq",
            "url": "https://dashboard.cip-core.local:8443/render/d-solo/njIiuGRMk/ctc-pcps-health-check?refresh=1m&orgId=1&panelId=32&width=1000&height=500&tz=America%2FSao_Paulo",
            "help": "Top arquivos em transmissão CIP para o mercado."
        },
        {
            "name": "Tráfego rede pública SO",
            "cmd": "trafnt",
            "url": "https://dashboard.cip-core.local:8443/render/d-solo/njIiuGRMk/ctc-pcps-health-check?refresh=1m&orgId=1&panelId=2&width=1000&height=500&tz=America%2FSao_Paulo",
            "help": "DB Servers tráfego entrada rede pública"
        },
        {
            "name": "Storage VMAX IOPS (EMC)",
            "cmd": "storage",
            "url": "https://dashboard.cip-core.local:8443/render/d-solo/njIiuGRMk/ctc-pcps-health-check?refresh=1m&orgId=1&panelId=24&width=1000&height=500&tz=America%2FSao_Paulo",
            "help": "Storage VMAX IOPS (EMC)"
        },
        {
            "name": "MQ/FT Servers Tráfego entrante rede pública SO",
            "cmd": "trafso",
            "url": "https://dashboard.cip-core.local:8443/render/d-solo/njIiuGRMk/ctc-pcps-health-check?refresh=1m&orgId=1&panelId=3&width=1000&height=500&tz=America%2FSao_Paulo",
            "help": "MQ/FT Servers Tráfego entrante rede pública SO"
        },
        {
            "name": "Link de Dados PRIMESYS Produção - CTC (10Mb - CIP#TIVIT-SPO#01)",
            "cmd": "lkprime",
            "url": "https://dashboard.cip-core.local:8443/render/d-solo/njIiuGRMk/ctc-pcps-health-check?refresh=1m&orgId=1&panelId=34&width=1000&height=500&tz=America%2FSao_Paulo",
            "help": "Link de Dados PRIMESYS Produção - CTC (10Mb - CIP#TIVIT-SPO#01)"
        },
        {
            "name": "Link dados RTM Produção",
            "cmd": "lkprd2",
            "url": "https://dashboard.cip-core.local:8443/render/d-solo/njIiuGRMk/ctc-pcps-health-check?refresh=1m&orgId=1&panelId=26&width=1000&height=500&tz=America%2FSao_Paulo",
            "help": "Link de Dados RTM Produção - CTC (10mb - 74512)"
        },
        {
            "name": "Top arquivos CIP para o mercado",
            "cmd": "filaarq",
            "url": "https://dashboard.cip-core.local:8443/render/d-solo/njIiuGRMk/ctc-pcps-health-check?refresh=1m&orgId=1&panelId=33&width=1000&height=500&tz=America%2FSao_Paulo",
            "help": "Top arquivos - Em fila CIP para o mercado"
        },
        {
            "name": "Top fila mensageria MQ",
            "cmd": "topmsgmq",
            "url": "https://dashboard.cip-core.local:8443/render/d-solo/njIiuGRMk/ctc-pcps-health-check?refresh=1m&orgId=1&panelId=46&width=1000&height=500&tz=America%2FSao_Paulo",
            "help": "Top fila mensageria MQ"
        },
        {
            "name": "Portais CTC/PCPS",
            "cmd": "portais",
            "url": "https://dashboard.cip-core.local:8443/render/d-solo/njIiuGRMk/ctc-pcps-health-check?refresh=1m&orgId=1&panelId=50&width=1000&height=500&tz=America%2FSao_Paulo",
            "help": "Portais CTC/PCPS"
        },
        {
            "name": "Arquivos Processados",
            "cmd": "arqproc",
            "url": "https://dashboard.cip-core.local:8443/render/d-solo/njIiuGRMk/ctc-pcps-health-check?refresh=1m&orgId=1&panelId=5&width=1000&height=500&tz=America%2FSao_Paulo",
            "help": "Arquivos Processados (Atlante)"
        },
        {
            "name": "Total arquivos parados IN",
            "cmd": "filestopin",
            "url": "https://dashboard.cip-core.local:8443/render/d-solo/njIiuGRMk/ctc-pcps-health-check?refresh=1m&orgId=1&panelId=40&width=1000&height=500&tz=America%2FSao_Paulo",
            "help": "Total arquivos parados IN"
        },
        {
            "name": "Total arquivos - DONE",
            "cmd": "filestopdone",
            "url": "https://dashboard.cip-core.local:8443/render/d-solo/njIiuGRMk/ctc-pcps-health-check?refresh=1m&orgId=1&panelId=41&width=1000&height=500&tz=America%2FSao_Paulo",
            "help": "Total arquivos parados - DONE"
        },
        {
            "name": "Entrada c3 -> ctc REQ",
            "cmd": "c3ctcrq",
            "url": "https://dashboard.cip-core.local:8443/render/d-solo/njIiuGRMk/ctc-pcps-health-check?refresh=1m&orgId=1&panelId=45&width=1000&height=500&tz=America%2FSao_Paulo",
            "help": "Entrada c3 -> ctc REQ"
        },
        {
            "name": "Entrada c3 -> ctc",
            "cmd": "c3toctc",
            "url": "https://dashboard.cip-core.local:8443/render/d-solo/njIiuGRMk/ctc-pcps-health-check?refresh=1m&orgId=1&panelId=47&width=1000&height=500&tz=America%2FSao_Paulo",
            "help": "Entrada c3 -> ctc"
        },
        {
            "name": "Saída CTC -> C3",
            "cmd": "ctcc3rsp",
            "url": "https://dashboard.cip-core.local:8443/render/d-solo/njIiuGRMk/ctc-pcps-health-check?refresh=1m&orgId=1&panelId=53&width=1000&height=500&tz=America%2FSao_Paulo",
            "help": "Saída CTC -> C3"
        },
        {
            "name": "Saída CTC -> C3",
            "cmd": "ctctoc3",
            "url": "https://dashboard.cip-core.local:8443/render/d-solo/njIiuGRMk/ctc-pcps-health-check?refresh=1m&orgId=1&panelId=54&width=1000&height=500&tz=America%2FSao_Paulo",
            "help": "Saída CTC -> C3"
        },
        {
            "name": "Negócios dashboards",
            "cmd": "negocios",
            "url": [],
            "help": "Graficos negócios CTC"
        },
        {
            "name": "Infraestrutura dashboards",
            "cmd": "infra",
            "url": [],
            "help": "Graficos infraestrutura CTC"
        }
    ]
}
