{
    "data": [
        {
            "name": "negocios",
            "cmd": "negocios",
            "url": [],
            "help": "Graficos negócios C3M"
        },
        {
            "name": "negocios",
            "cmd": "infra",
            "url": [],
            "help": "Graficos infraestrutura C3M"
        },
        {
            "name": "Total arquivos IN",
            "cmd": "filesin",
            "url": "https://dashboard.cip-core.local:8443/render/d-solo/_8FUA87Zz/c3-health-check?refresh=1m&orgId=1&panelId=38&width=1000&height=500&tz=America%2FSao_Paulo",
            "help": "Total arquivos IN C3M"
        },
        {
            "name": "Total arquivos IN",
            "cmd": "filesin",
            "url": "https://dashboard.cip-core.local:8443/render/d-solo/_8FUA87Zz/c3-health-check?refresh=1m&orgId=1&panelId=38&width=1000&height=500&tz=America%2FSao_Paulo",
            "help": "Total arquivos IN C3M"
        },
        {
            "name": "Total de arquivos DONE",
            "cmd": "filesdone",
            "url": "https://dashboard.cip-core.local:8443/render/d-solo/LGzZ4VaWk/pcr-health-check?refresh=1m&panelId=48&orgId=1&width=1000&height=500&tz=America%2FSao_Paulo",
            "help": "Total de Files Done"
        },
        {
            "name": "Entrada CTC -> C3",
            "cmd": "inctc3",
            "url": "https://dashboard.cip-core.local:8443/render/d-solo/_8FUA87Zz/c3-health-check?refresh=1m&orgId=1&panelId=44&width=1000&height=500&tz=America%2FSao_Paulo",
            "help": "Entrada CTC -> C3"
        },
        {
            "name": "Saída de C3 -> CTC",
            "cmd": "outctc3",
            "url": "https://dashboard.cip-core.local:8443/render/d-solo/_8FUA87Zz/c3-health-check?refresh=1m&orgId=1&panelId=47&width=1000&height=500&tz=America%2FSao_Paulo",
            "help": "Saída C3 -> CTC"
        },
        {
            "name": "Arquivos parados IN",
            "cmd": "filestopin",
            "url": "https://dashboard.cip-core.local:8443/render/d-solo/_8FUA87Zz/c3-health-check?refresh=1m&orgId=1&panelId=41&width=1000&height=500&tz=America%2FSao_Paulo",
            "help": "Total de arquivo parado - IN"
        },
        {
            "name": "Arquivos parados DONE",
            "cmd": "paradone",
            "url": "https://dashboard.cip-core.local:8443/render/d-solo/_8FUA87Zz/c3-health-check?refresh=1m&orgId=1&panelId=43&width=1000&height=500&tz=America%2FSao_Paulo",
            "help": "Arquivos parados DONE"
        },
        {
            "name": "Entrada CTC -> C3",
            "cmd": "ctcforc3",
            "url": "https://dashboard.cip-core.local:8443/render/d-solo/_8FUA87Zz/c3-health-check?refresh=1m&orgId=1&panelId=45&width=1000&height=500&tz=America%2FSao_Paulo",
            "help": "Entrada CTC -> C3"
        },
        {
            "name": "Saída C3 -> CTC",
            "cmd": "c3forctc",
            "url": "https://dashboard.cip-core.local:8443/render/d-solo/_8FUA87Zz/c3-health-check?refresh=1m&orgId=1&panelId=48&width=1000&height=500&tz=America%2FSao_Paulo",
            "help": "Saída C3 -> CTC"
        },
        {
            "name": "Arquivos Processados",
            "cmd": "arqproc",
            "url": "https://dashboard.cip-core.local:8443/render/d-solo/_8FUA87Zz/c3-health-check?refresh=1m&orgId=1&panelId=5&width=1000&height=500&tz=America%2FSao_Paulo",
            "help": "Arquivos Processados C3 Atlante"
        },
        {
            "name": "Média de Mensagens Atlante",
            "cmd": "mdmsg",
            "url": "https://dashboard.cip-core.local:8443/render/d-solo/_8FUA87Zz/c3-health-check?refresh=1m&orgId=1&panelId=6&width=1000&height=500&tz=America%2FSao_Paulo",
            "help": "Média de Mensagens processados Atlante"
        },
        {
            "name": "Top Arquivos",
            "cmd": "transarq",
            "url": "https://dashboard.cip-core.local:8443/render/d-solo/_8FUA87Zz/c3-health-check?refresh=1m&orgId=1&panelId=46&width=1000&height=500&tz=America%2FSao_Paulo",
            "help": "Top arquivos - Em transmissão CIP para o mercado"
        },
        {
            "name": "Tráfego rede pública MQ",
            "cmd": "trafmq",
            "url": "https://dashboard.cip-core.local:8443/render/d-solo/_8FUA87Zz/c3-health-check?refresh=1m&orgId=1&panelId=32&width=1000&height=500&tz=America%2FSao_Paulo",
            "help": "Tráfego rede pública MQ"
        },
        {
            "name": "Tráfego rede pública SO",
            "cmd": "trafnt",
            "url": "https://dashboard.cip-core.local:8443/render/d-solo/_8FUA87Zz/c3-health-check?refresh=1m&orgId=1&panelId=2&width=1000&height=500&tz=America%2FSao_Paulo",
            "help": "DB Servers tráfego entrada rede pública"
        },
        {
            "name": "MQ/FT Servers Tráfego entrante rede pública SO",
            "cmd": "trafso",
            "url": "https://dashboard.cip-core.local:8443/render/d-solo/_8FUA87Zz/c3-health-check?refresh=1m&orgId=1&panelId=36&width=1000&height=500&tz=America%2FSao_Paulo",
            "help": "MQ/FT Servers tráfego entrante rede pública SO"
        },
        {
            "name": "Storage VMAX IOPS (EMC)",
            "cmd": "storage",
            "url": "https://dashboard.cip-core.local:8443/render/d-solo/_8FUA87Zz/c3-health-check?refresh=1m&orgId=1&panelId=24&width=1000&height=500&tz=America%2FSao_Paulo",
            "help": "Storage VMAX IOPS (EMC)"
        },
        {
            "name": "Link dados Primesys",
            "cmd": "lkprime",
            "url": "https://dashboard.cip-core.local:8443/render/d-solo/_8FUA87Zz/c3-health-check?refresh=1m&orgId=1&panelId=28&width=1000&height=500&tz=America%2FSao_Paulo",
            "help": "Link de Dados Primesys Produção PRD - C3"
        },
        {
            "name": "Link dados RTM PRD",
            "cmd": "lkprd",
            "url": "https://dashboard.cip-core.local:8443/render/d-solo/_8FUA87Zz/c3-health-check?refresh=1m&orgId=1&panelId=28&width=1000&height=500&tz=America%2FSao_Paulo",
            "help": "Link de Dados RTM Produção PRD - C3 (100mb)"
        },
        {
            "name": "Ajuda para auxilio de comandos validos",
            "cmd": "/h",
            "url": "",
            "help": "Ajuda para auxilio de comandos c3mm"
        }
    ]
}
