{
	"data": [
		{
			"name": "negocios",
			"cmd": "negocios",
			"url": "",
			"help": "Graficos negócios C3M"
		},
		{
			"name": "infra",
			"cmd": "infra",
			"url": "",
			"help": "Graficos infraestrutura C3M"
		},
		{
			"name": "TOTAL - Arquivos IN",
			"cmd": "filein",
			"url": "https://dashboard.cip-core.local:8443/render/d-solo/-sVBmBGZz/serap-health-check?refresh=1m&orgId=1&panelId=37&width=1000&height=500&tz=America%2FSao_Paulo",
			"help": "TOTAL - Arquivos IN"
		},
		{
			"name": "Total - Arquivos IN Gráficos",
			"cmd": "ingraph",
			"url": "https://dashboard.cip-core.local:8443/render/d-solo/-sVBmBGZz/serap-health-check?refresh=1m&orgId=1&panelId=40&width=1000&height=500&tz=America%2FSao_Paulo",
			"help": "Total - Arquivos IN Gráficos"
		},
		{
			"name": "TOTAL - Arquivos DONE",
			"cmd": "filedone",
			"url": "https://dashboard.cip-core.local:8443/render/d-solo/-sVBmBGZz/serap-health-check?refresh=1m&orgId=1&panelId=38&width=1000&height=500&tz=America%2FSao_Paulo",
			"help": "TOTAL - Arquivos DONE"
		},
		{
			"name": "TOTAL - Arquivos DONE",
			"cmd": "donegraph",
			"url": "https://dashboard.cip-core.local:8443/render/d-solo/-sVBmBGZz/serap-health-check?refresh=1m&orgId=1&panelId=41&width=1000&height=500&tz=America%2FSao_Paulo",
			"help": "TOTAL - Arquivos DONE Gráficos"
		},
		{
			"name": "MQ ATL Confirmation",
			"cmd": "mqatl",
			"url": "https://dashboard.cip-core.local:8443/render/d-solo/-sVBmBGZz/serap-health-check?refresh=1m&orgId=1&panelId=45&width=1000&height=500&tz=America%2FSao_Paulo",
			"help": "MQ ATL Confirmation"
		},
		{
			"name": "MQ ATL Confirmation Gráfico",
			"cmd": "mqatgrap",
			"url": "https://dashboard.cip-core.local:8443/render/d-solo/-sVBmBGZz/serap-health-check?refresh=1m&orgId=1&panelId=47&width=1000&height=500&tz=America%2FSao_Paulo",
			"help": "MQ ATL Confirmation Gráfico"
		},
		{
			"name": "Tráfego rede pública SO",
			"cmd": "trafnt",
			"url": "https://dashboard.cip-core.local:8443/render/d-solo/-sVBmBGZz/serap-health-check?refresh=1m&orgId=1&panelId=2&width=1000&height=500&tz=America%2FSao_Paulo",
			"help": "DB Servers tráfego entrada rede pública"
		},
		{
			"name": "Storage VMAX IOPS (EMC)",
			"cmd": "storage",
			"url": "https://dashboard.cip-core.local:8443/render/d-solo/-sVBmBGZz/serap-health-check?refresh=1m&orgId=1&panelId=24&width=1000&height=500&tz=America%2FSao_Paulo",
			"help": "Storage VMAX IOPS (EMC)"
		},
		{
			"name": "Top fila mensageria MQ",
			"cmd": "topmsgmq",
			"url": "https://dashboard.cip-core.local:8443/render/d-solo/-sVBmBGZz/serap-health-check?refresh=1m&orgId=1&panelId=46&width=1000&height=500&tz=America%2FSao_Paulo",
			"help": "Top fila mensageria MQ"
		},
		{
			"name": "Link de Dados RSFN Produção - SERAP (PRD-SPB#CIP#05)",
			"cmd": "lkrsprd",
			"url": "https://dashboard.cip-core.local:8443/render/d-solo/-sVBmBGZz/serap-health-check?refresh=1m&orgId=1&panelId=26&width=1000&height=500&tz=America%2FSao_Paulo",
			"help": "Link de Dados RSFN Produção - SERAP (PRD-SPB#CIP#05)"
		},
		{
			"name": "Link dados RTM Produção",
			"cmd": "lkprd2",
			"url": "https://dashboard.cip-core.local:8443/render/d-solo/-sVBmBGZz/serap-health-check?refresh=1m&orgId=1&panelId=34&width=1000&height=500&tz=America%2FSao_Paulo",
			"help": "Link de Dados RTM Produção - SERAP (LINK-TIVIT-C3/SCG/CTC-PRD-74512)"
		},
		{
			"name": "Link de Dados RSFN Produção - SERAP (PRD-SPOIP15456)",
			"cmd": "lkspoip",
			"url": "https://dashboard.cip-core.local:8443/render/d-solo/-sVBmBGZz/serap-health-check?refresh=1m&orgId=1&panelId=49&width=1000&height=500&tz=America%2FSao_Paulo",
			"help": "Link de Dados RSFN Produção - SERAP (PRD-SPOIP15456)"
		},
		{
			"name": "Top arquivos",
			"cmd": "transarq",
			"url": "https://dashboard.cip-core.local:8443/render/d-solo/-sVBmBGZz/serap-health-check?refresh=1m&orgId=1&panelId=32&width=1000&height=500&tz=America%2FSao_Paulo",
			"help": "Arquivos transmitidos CIP para o mercado"
		},
		{
			"name": "MQ/FT Servers Tráfego entrante rede pública SO",
			"cmd": "trafso",
			"url": "https://dashboard.cip-core.local:8443/render/d-solo/-sVBmBGZz/serap-health-check?refresh=1m&orgId=1&panelId=3&width=1000&height=500&tz=America%2FSao_Paulo",
			"help": "MQ/FT Servers Tráfego entrante rede pública SO"
		},
		{
			"name": "Arquivos processados",
			"cmd": "arqproc",
			"url": "https://dashboard.cip-core.local:8443/render/d-solo/-sVBmBGZz/serap-health-check?refresh=1m&orgId=1&panelId=5&width=1000&height=500&tz=America%2FSao_Paulo",
			"help": "Arquivos processados (Atlante)"
		},
		{
			"name": "Média de arquivos processados (Atlante)",
			"cmd": "mediamsg",
			"url": "https://dashboard.cip-core.local:8443/render/d-solo/-sVBmBGZz/serap-health-check?refresh=1m&orgId=1&panelId=6&width=1000&height=500&tz=America%2FSao_Paulo",
			"help": "Média de arquivos processados (Atlante)"
		},
		{
			"name": "Top arquivos em fila",
			"cmd": "filaarq",
			"url": "https://dashboard.cip-core.local:8443/render/d-solo/-sVBmBGZz/serap-health-check?refresh=1m&orgId=1&panelId=33&width=1000&height=500&tz=America%2FSao_Paulo",
			"help": "Top arquivos em fila para o mercado"
		},
		{
			"name": "Ajuda para auxilio de comandos validos",
			"cmd": "/h",
			"url": "",
			"help": "Ajuda para auxilio de comandos SERAP"
		}
	]
}