{
    "data": [
        {
            "name": "negocios",
            "cmd": "sla",
            "url": [],
            "help": "Gráficos sla - sla (nome da fila)"
        },
        {
            "name": "Ajuda para auxilio de comandos validos",
            "cmd": "/h",
            "url": "",
            "help": "Ajuda para auxilio de comandos PCR"
        }
    ]
}