{
    "data": [
        {
            "name": "arqproc",
            "cmd": "arqproc",
            "url": "https://dashboard.cip-core.local:8443/render/d-solo/LGzZ4VaWk/pcr-health-check?refresh=1m&panelId=5&orgId=1&width=1000&height=500&tz=America%2FSao_Paulo",
            "help": "Arquivos processados"
        },
        {
            "name": "msgin",
            "cmd": "msgin",
            "url": "https://dashboard.cip-core.local:8443/render/d-solo/LGzZ4VaWk/pcr-health-check?refresh=1m&panelId=48&orgId=1&width=1000&height=500&tz=America%2FSao_Paulo",
            "help": "Mensagens na Entrada"
        },
        {
            "name": "dda101",
            "cmd": "dda101",
            "url": "https://dashboard.cip-core.local:8443/render/d-solo/LGzZ4VaWk/pcr-health-check?refresh=1m&panelId=52&orgId=1&width=1000&height=500&tz=America%2FSao_Paulo",
            "help": "SLA DDA101"
        },
        {
            "name": "dda110",
            "cmd": "dda110",
            "url": "https://dashboard.cip-core.local:8443/render/d-solo/LGzZ4VaWk/pcr-health-check?refresh=1m&panelId=54&orgId=1&width=1000&height=500&tz=America%2FSao_Paulo",
            "help": "SLA DDA110"
        },
        {
            "name": "adda101",
            "cmd": "adda101",
            "url": "https://dashboard.cip-core.local:8443/render/d-solo/LGzZ4VaWk/pcr-health-check?refresh=1m&panelId=56&orgId=1&width=1000&height=500&tz=America%2FSao_Paulo",
            "help": "SLA ADDA101"
        },
        {
            "name": "adda110",
            "cmd": "adda110",
            "url": "https://dashboard.cip-core.local:8443/render/d-solo/LGzZ4VaWk/pcr-health-check?refresh=1m&panelId=58&orgId=1&width=1000&height=500&tz=America%2FSao_Paulo",
            "help": "SLA ADDA110"
        },
        {
            "name": "filatop5",
            "cmd": "filatop5",
            "url": "https://dashboard.cip-core.local:8443/render/d-solo/LGzZ4VaWk/pcr-health-check?refresh=1m&panelId=32&orgId=1&width=1000&height=500&tz=America%2FSao_Paulo",
            "help": "Fila MSG Top5"
        },
        {
            "name": "filageral",
            "cmd": "filageral",
            "url": "https://dashboard.cip-core.local:8443/render/d-solo/LGzZ4VaWk/pcr-health-check?refresh=1m&panelId=59&orgId=1&width=1000&height=500&tz=America%2FSao_Paulo",
            "help": "Fila MSG Geral"
        },
        {
            "name": "filaarq",
            "cmd": "filaarq",
            "url": "https://dashboard.cip-core.local:8443/render/d-solo/LGzZ4VaWk/pcr-health-check?refresh=1m&panelId=72&orgId=1&width=1000&height=500&tz=America%2FSao_Paulo",
            "help": "Arq em Fila"
        },
        {
            "name": "transarq",
            "cmd": "transarq",
            "url": "https://dashboard.cip-core.local:8443/render/d-solo/LGzZ4VaWk/pcr-health-check?refresh=1m&panelId=60&orgId=1&width=1000&height=500&tz=America%2FSao_Paulo",
            "help": "Arq em Transm"
        },
        {
            "name": "msgpart",
            "cmd": "msgpart",
            "url": "https://dashboard.cip-core.local:8443/render/d-solo/LGzZ4VaWk/pcr-health-check?refresh=1m&panelId=28&orgId=1&width=1000&height=500&tz=America%2FSao_Paulo",
            "help": "MSG Proc / Part"
        },
        {
            "name": "arqpart",
            "cmd": "arqpart",
            "url": "https://dashboard.cip-core.local:8443/render/d-solo/LGzZ4VaWk/pcr-health-check?refresh=1m&panelId=64&orgId=1&width=1000&height=500&tz=America%2FSao_Paulo",
            "help": "ARQ Proc / Part"
        },
        {
            "name": "arqreg",
            "cmd": "arqreg",
            "url": "https://dashboard.cip-core.local:8443/render/d-solo/LGzZ4VaWk/pcr-health-check?refresh=1m&panelId=65&orgId=1&width=1000&height=500&tz=America%2FSao_Paulo",
            "help": "Reg em ARQ"
        },
        {
            "name": "mediamsg",
            "cmd": "mediamsg",
            "url": "https://dashboard.cip-core.local:8443/render/d-solo/LGzZ4VaWk/pcr-health-check?refresh=1m&panelId=6&orgId=1&width=1000&height=500&tz=America%2FSao_Paulo",
            "help": "Media MSG Proc"
        },
        {
            "name": "fttrafent",
            "cmd": "fttrafent",
            "url": "https://dashboard.cip-core.local:8443/render/d-solo/LGzZ4VaWk/pcr-health-check?refresh=1m&panelId=2&orgId=1&width=1000&height=500&tz=America%2FSao_Paulo",
            "help": "FT Trafego Entrante"
        },
        {
            "name": "mqtrafent",
            "cmd": "mqtrafent",
            "url": "https://dashboard.cip-core.local:8443/render/d-solo/LGzZ4VaWk/pcr-health-check?refresh=1m&panelId=61&orgId=1&width=1000&height=500&tz=America%2FSao_Paulo",
            "help": "MQ Trafego Entrante"
        },
        {
            "name": "dbtrafent",
            "cmd": "dbtrafent",
            "url": "https://dashboard.cip-core.local:8443/render/d-solo/LGzZ4VaWk/pcr-health-check?refresh=1m&panelId=62&orgId=1&width=1000&height=500&tz=America%2FSao_Paulo",
            "help": "DB Trafego Entrante"
        },
        {
            "name": "storage",
            "cmd": "storage",
            "url": "https://dashboard.cip-core.local:8443/render/d-solo/LGzZ4VaWk/pcr-health-check?refresh=1m&panelId=63&orgId=1&width=1000&height=500&tz=America%2FSao_Paulo",
            "help": "Storage VMAX IOPS"
        },
        {
            "name": "primesys",
            "cmd": "primesys",
            "url": "https://dashboard.cip-core.local:8443/render/d-solo/LGzZ4VaWk/pcr-health-check?refresh=1m&panelId=70&orgId=1&width=1000&height=500&tz=America%2FSao_Paulo",
            "help": "Link Primesys"
        },
        {
            "name": "linkrtm",
            "cmd": "linkrtm",
            "url": "https://dashboard.cip-core.local:8443/render/d-solo/LGzZ4VaWk/pcr-health-check?refresh=1m&panelId=71&orgId=1&width=1000&height=500&tz=America%2FSao_Paulo",
            "help": "Link RTM"
        },
        {
            "name": "senderhext",
            "cmd": "senderhext",
            "url": "https://dashboard.cip-core.local:8443/render/d-solo/nf5PT65Zk/status_canal_pcr_hext?panelId=20&orgId=1&width=1000&height=500&tz=America%2FSao_Paulo",
            "help": "Channel Sender HEXT"
        },
        {
            "name": "rechext",
            "cmd": "rechext",
            "url": "https://dashboard.cip-core.local:8443/render/d-solo/nf5PT65Zk/status_canal_pcr_hext?panelId=21&orgId=1&width=1000&height=500&tz=America%2FSao_Paulo",
            "help": "Channel Receiver HEXT"
        },
        {
            "name": "Ajuda para auxilio de comandos validos",
            "cmd": "/h",
            "url": "",
            "help": "Ajuda para auxilio de comandos Grupos"
        }
    ]
}
